KeenanEarly-Erin-ADA-HOMEWORK-02
…
## 
## Attaching package: 'dplyr'

## The following objects are masked from 'package:stats':
## 
##     filter, lag

## The following objects are masked from 'package:base':
## 
##     intersect, setdiff, setequal, union

samp<- sample_n(zombie, 30, replace=FALSE)
samp 

## # A tibble: 30 x 10
##       id first_name last_name gender height weight zombies_killed
##    <dbl> <chr>      <chr>     <chr>   <dbl>  <dbl>          <dbl>
##  1   231 Kathleen   Wright    Female   63.4   119.              2
##  2   453 Brian      Simpson   Male     65.9   128.              2
##  3   223 Russell    Jenkins   Male     67.1   128.              3
##  4   604 Albert     Stone     Male     69.4   151.              1
##  5   461 Mark       Allen     Male     76.5   158.              7
##  6   702 Rachel     Carter    Female   67.2   137.              4
##  7   698 Angela     Brown     Female   63.3   136.              4
##  8   876 Billy      Reynolds  Male     71.0   161.              4
##  9   519 Timothy    Cooper    Male     68.5   158.              0
## 10   196 Carlos     Porter    Male     72.6   156.              6
## # ... with 20 more rows, and 3 more variables: years_of_education <dbl>,
## #   major <chr>, age <dbl>
…
